Lab 08 - Pull yourself up by your bootstraps
…
## # A tibble: 3 x 2
##   born      n
##   <chr> <int>
## 1 No      355
## 2 Yes    2507
## 3 <NA>      5

We can see that some respondents did not answer this question, or they did not know, or thought the question was not applicable for them. Upon data import these responses were coded as NAs.

Similarly, we can see that some respondents did not answer the education question:

gss %>%
  count(educ)

## # A tibble: 22 x 2
##     educ     n
##    <int> <int>
##  1     0     2
##  2     1     3
##  3     2     3
##  4     3     3
##  5     4     2
##  6     5     4
##  7     6    31
##  8     7    18
##  9     8    48
## 10     9    59
## # ... with 12 more rows
…
